…
$`by provide, place of service`
# A tibble: 45 × 4
# Groups:   PROVIDER_GROUP [4]
   PROVIDER_GROUP PLACE_OF_SERVICE                               SUBMI…¹ SUBMI…²
   <chr>          <chr>                                            <dbl>   <dbl>
 1 Cardiology     ""                                                   0  0     
 2 Cardiology     "Ambulatory Surgical Center"                        20  2.58e5
 3 Cardiology     "Comprehensive Inpatient Rehabilitation Facil…       0  0     
 4 Cardiology     "Home"                                               0  0     
 5 Cardiology     "Independent Clinic"                                 0  0     
 6 Cardiology     "Inpatient Hospital"                              2753  1.54e7
 7 Cardiology     "Mobile Unit"                                        0  0     
 8 Cardiology     "Off Campus-Outpatient Hospital"                     0  0     
 9 Cardiology     "Office"                                          8397  1.97e8
10 Cardiology     "On Campus-Outpatient Hospital"                   4106  2.19e7
# … with 35 more rows, and abbreviated variable names ¹​SUBMITTED_SERVICE_CNT,
#   ²​SUBMITTED_CHARGE_AMT
# ℹ Use `print(n = ...)` to see more rows

$`by segment, place of service`
# A tibble: 41 × 4
# Groups:   ANATOMIC_SEGMENT [3]
   ANATOMIC_SEGMENT  PLACE_OF_SERVICE                            SUBMI…¹ SUBMI…²
   <chr>             <chr>                                         <dbl>   <dbl>
 1 Femoral/Popliteal ""                                                0  0     
 2 Femoral/Popliteal "Ambulatory Surgical Center"                    210  2.72e6
 3 Femoral/Popliteal "Comprehensive Inpatient Rehabilitation Fa…       0  0     
 4 Femoral/Popliteal "Home"                                            0  0     
 5 Femoral/Popliteal "Independent Clinic"                              0  0     
 6 Femoral/Popliteal "Inpatient Hospital"                          12375  7.39e7
 7 Femoral/Popliteal "Mobile Unit"                                     0  0     
 8 Femoral/Popliteal "Nursing Facility"                                0  0     
 9 Femoral/Popliteal "Off Campus-Outpatient Hospital"                  0  0     
10 Femoral/Popliteal "Office"                                      41600  1.24e9
# … with 31 more rows, and abbreviated variable names ¹​SUBMITTED_SERVICE_CNT,
#   ²​SUBMITTED_CHARGE_AMT
# ℹ Use `print(n = ...)` to see more rows

$`by provider, segment, place of service`
# A tibble: 111 × 5
# Groups:   PROVIDER_GROUP, ANATOMIC_SEGMENT [12]
   PROVIDER_GROUP ANATOMIC_SEGMENT  PLACE_OF_SERVICE             SUBMI…¹ SUBMI…²
   <chr>          <chr>             <chr>                          <dbl>   <dbl>
 1 Cardiology     Femoral/Popliteal ""                                 0  0     
 2 Cardiology     Femoral/Popliteal "Ambulatory Surgical Center"      20  2.58e5
 3 Cardiology     Femoral/Popliteal "Comprehensive Inpatient Re…       0  0     
 4 Cardiology     Femoral/Popliteal "Independent Clinic"               0  0     
 5 Cardiology     Femoral/Popliteal "Inpatient Hospital"             969  5.82e6
 6 Cardiology     Femoral/Popliteal "Mobile Unit"                      0  0     
 7 Cardiology     Femoral/Popliteal "Off Campus-Outpatient Hosp…       0  0     
 8 Cardiology     Femoral/Popliteal "Office"                        3052  1.01e8
 9 Cardiology     Femoral/Popliteal "On Campus-Outpatient Hospi…    2076  1.29e7
10 Cardiology     Femoral/Popliteal "Other Place of Service"           0  0     
# … with 101 more rows, and abbreviated variable names ¹​SUBMITTED_SERVICE_CNT,
#   ²​SUBMITTED_CHARGE_AMT
# ℹ Use `print(n = ...)` to see more rows
…
