…
1                          NA                              NA
2                          NA                              NA
3                          NA                              NA
4                          NA                              NA
5                          NA                              NA
6                          27                              NA
  SUBMITTED_SERVICE_CNT.Surgery
1                            NA
2                            NA
3                            NA
4                            NA
5                            NA
6                            NA
> eval(calls$tidyverse)
# A tibble: 90,202 × 6
   HCPCS_CD PLACE_OF_SERVICE_CD   Other Cardiology Radiology Surgery
   <chr>                  <int>   <dbl>      <dbl>     <dbl>   <dbl>
 1 76942                     22 253577        1605     77655    1630
 2 L3923                     12  12503           0        NA     344
 3 25115                     24   1302          NA        NA       0
 4 26420                     24      0          NA        NA      NA
 5 28270                     11   2673          NA        NA      NA
 6 99306                     31 612162.     507616       169    7795
 7 36902                     11  41993        4915     26210   24467
 8 96137                     11 336004.       1820        NA      NA
 9 11606                     11  12787          68        NA    1145
10 L2200                     12  11214          NA        NA       0
# … with 90,192 more rows
# ℹ Use `print(n = ...)` to see more rows
…
